<?xml version="1.0" encoding="UTF-8"?>
<svg id="Capa_1" data-name="Capa 1" xmlns="http://www.w3.org/2000/svg" xmlns:xlink="http://www.w3.org/1999/xlink" viewBox="0 0 57 57">
  <defs>
    <style>
      .cls-1 {
        fill: url(#Degradado_sin_nombre_3);
      }

      .cls-2 {
        filter: url(#drop-shadow-1);
      }

      .cls-2, .cls-3 {
        fill: #fff;
      }

      .cls-3 {
        font-family: MyriadPro-Bold, 'Myriad Pro';
        font-size: 36px;
        font-weight: 700;
      }

      .cls-4 {
        fill: #00a599;
        stroke: #00a599;
        stroke-miterlimit: 10;
        stroke-width: 3px;
      }
    </style>
    <filter id="drop-shadow-1" filterUnits="userSpaceOnUse">
      <feOffset dx="1" dy="1"/>
      <feGaussianBlur result="blur" stdDeviation="1"/>
      <feFlood flood-color="#000" flood-opacity=".35"/>
      <feComposite in2="blur" operator="in"/>
      <feComposite in="SourceGraphic"/>
    </filter>
    <linearGradient id="Degradado_sin_nombre_3" data-name="Degradado sin nombre 3" x1="11.7" y1="27.34" x2="43.01" y2="27.34" gradientUnits="userSpaceOnUse">
      <stop offset="0" stop-color="#00a69a"/>
      <stop offset="1" stop-color="#79be43"/>
    </linearGradient>
  </defs>
  <g>
    <g>
      <circle class="cls-2" cx="27.26" cy="27.43" r="25.09"/>
      <path class="cls-4" d="M27.37,5.21c12.23,0,22.18,9.95,22.18,22.18s-9.95,22.18-22.18,22.18S5.19,39.62,5.19,27.39,15.14,5.21,27.37,5.21Zm0,42.85c11.4,0,20.67-9.27,20.67-20.67S38.77,6.72,27.37,6.72,6.7,15.99,6.7,27.39s9.27,20.67,20.67,20.67Z"/>
    </g>
    <circle class="cls-1" cx="27.36" cy="27.34" r="15.66"/>
  </g>
  <text class="cls-3" transform="translate(22.85 39.28)"><tspan x="0" y="0">i</tspan></text>
</svg>